{
  "contents": [
    {
      "item_id": 100120001,
      "item_name": "포가튼 블레이드",
      "server_id": 77,
      "server_name": "아리아07",
      "enchant_level": 0,
      "grade": "legendary",
      "image": "https://wstatic-cdn.plaync.com/powerbook/l2m/icon/Icon_128/Item/Icon_WP_Sword_G2_002.png",
      "now_min_unit_price": 100000,
      "avg_unit_price": 0,
      "favorite": false
    },
    {
      "item_id": 100320001,
      "item_name": "나가스톰",
      "server_id": 45,
      "server_name": "에리카05",
      "enchant_level": 0,
      "grade": "legendary",
      "image": "https://wstatic-cdn.plaync.com/powerbook/l2m/icon/Icon_128/Item/Icon_WP_Dagger_G2_001.png",
      "now_min_unit_price": 75000,
      "avg_unit_price": 0,
      "favorite": false
    },
    {
      "item_id": 100320001,
      "item_name": "나가스톰",
      "server_id": 45,
      "server_name": "에리카05",
      "enchant_level": 7,
      "grade": "legendary",
      "image": "https://wstatic-cdn.plaync.com/powerbook/l2m/icon/Icon_128/Item/Icon_WP_Dagger_G2_001.png",
      "now_min_unit_price": 85000,
      "avg_unit_price": 0,
      "favorite": false
    },
    {
      "item_id": 100420002,
      "item_name": "샤이드 보우",
      "server_id": 45,
      "server_name": "에리카05",
      "enchant_level": 7,
      "grade": "legendary",
      "image": "https://wstatic-cdn.plaync.com/powerbook/l2m/icon/Icon_128/Item/Icon_WP_Bow_G2_001.png",
      "now_min_unit_price": 85000,
      "avg_unit_price": 0,
      "favorite": false
    },
    {
      "item_id": 100620001,
      "item_name": "아르카나 오브",
      "server_id": 4,
      "server_name": "바츠04",
      "enchant_level": 7,
      "grade": "legendary",
      "image": "https://wstatic-cdn.plaync.com/powerbook/l2m/icon/Icon_128/Item/Icon_WP_Orb_G2_001.png",
      "now_min_unit_price": 61000,
      "avg_unit_price": 0,
      "favorite": false
    },
    {
      "item_id": 100620001,
      "item_name": "아르카나 오브",
      "server_id": 16,
      "server_name": "지그하르트06",
      "enchant_level": 7,
      "grade": "legendary",
      "image": "https://wstatic-cdn.plaync.com/powerbook/l2m/icon/Icon_128/Item/Icon_WP_Orb_G2_001.png",
      "now_min_unit_price": 64000,
      "avg_unit_price": 70000,
      "favorite": false
    },
    {
      "item_id": 100620001,
      "item_name": "아르카나 오브",
      "server_id": 66,
      "server_name": "카스티엔06",
      "enchant_level": 7,
      "grade": "legendary",
      "image": "https://wstatic-cdn.plaync.com/powerbook/l2m/icon/Icon_128/Item/Icon_WP_Orb_G2_001.png",
      "now_min_unit_price": 65000,
      "avg_unit_price": 0,
      "favorite": false
    },
    {
      "item_id": 100720001,
      "item_name": "세인트 스피어",
      "server_id": 99,
      "server_name": "테온09",
      "enchant_level": 7,
      "grade": "legendary",
      "image": "https://wstatic-cdn.plaync.com/powerbook/l2m/icon/Icon_128/Item/Icon_WP_Spear_G2_001.png",
      "now_min_unit_price": 60000,
      "avg_unit_price": 0,
      "favorite": false
    },
    {
      "item_id": 100820001,
      "item_name": "루드커터 크로스보우",
      "server_id": 21,
      "server_name": "카인01",
      "enchant_level": 0,
      "grade": "legendary",
      "image": "https://wstatic-cdn.plaync.com/powerbook/l2m/icon/Icon_128/Item/Icon_WP_Crossbow_G2_001.png",
      "now_min_unit_price": 220000,
      "avg_unit_price": 0,
      "favorite": false
    },
    {
      "item_id": 100920001,
      "item_name": "페더아이 버스터",
      "server_id": 16,
      "server_name": "지그하르트06",
      "enchant_level": 7,
      "grade": "legendary",
      "image": "https://wstatic-cdn.plaync.com/powerbook/l2m/icon/Icon_128/Item/Icon_WP_GreatSword_G2_001.png",
      "now_min_unit_price": 57000,
      "avg_unit_price": 60000,
      "favorite": false
    },
    {
      "item_id": 100920001,
      "item_name": "페더아이 버스터",
      "server_id": 67,
      "server_name": "카스티엔07",
      "enchant_level": 7,
      "grade": "legendary",
      "image": "https://wstatic-cdn.plaync.com/powerbook/l2m/icon/Icon_128/Item/Icon_WP_GreatSword_G2_001.png",
      "now_min_unit_price": 60000,
      "avg_unit_price": 0,
      "favorite": false
    },
    {
      "item_id": 100920001,
      "item_name": "페더아이 버스터",
      "server_id": 86,
      "server_name": "드비안느06",
      "enchant_level": 7,
      "grade": "legendary",
      "image": "https://wstatic-cdn.plaync.com/powerbook/l2m/icon/Icon_128/Item/Icon_WP_GreatSword_G2_001.png",
      "now_min_unit_price": 60000,
      "avg_unit_price": 60000,
      "favorite": false
    },
    {
      "item_id": 100920001,
      "item_name": "페더아이 버스터",
      "server_id": 136,
      "server_name": "바이움06",
      "enchant_level": 7,
      "grade": "legendary",
      "image": "https://wstatic-cdn.plaync.com/powerbook/l2m/icon/Icon_128/Item/Icon_WP_GreatSword_G2_001.png",
      "now_min_unit_price": 60000,
      "avg_unit_price": 0,
      "favorite": false
    },
    {
      "item_id": 100920001,
      "item_name": "페더아이 버스터",
      "server_id": 130,
      "server_name": "오필리아10",
      "enchant_level": 7,
      "grade": "legendary",
      "image": "https://wstatic-cdn.plaync.com/powerbook/l2m/icon/Icon_128/Item/Icon_WP_GreatSword_G2_001.png",
      "now_min_unit_price": 65000,
      "avg_unit_price": 0,
      "favorite": false
    },
    {
      "item_id": 100920001,
      "item_name": "페더아이 버스터",
      "server_id": 113,
      "server_name": "아이린03",
      "enchant_level": 7,
      "grade": "legendary",
      "image": "https://wstatic-cdn.plaync.com/powerbook/l2m/icon/Icon_128/Item/Icon_WP_GreatSword_G2_001.png",
      "now_min_unit_price": 70000,
      "avg_unit_price": 0,
      "favorite": false
    }
  ],
  "pagination": {
    "page": 1,
    "size": 15,
    "last_page": 20271,
    "total": 304060
  }
}
